traffic_light_controller.sim/sim_1/behav/xsim/simulate.log
Time resolution is 1 ps
time=0 | clk=0 rst=0 | light_M1=xxx light_MT=xxx light_M2=xxx light_S=xxx
time=5000 | clk=1 rst=0 | light_M1=001 light_MT=100 light_M2=001 light_S=100
time=10000 | clk=0 rst=1 | light_M1=001 light_MT=100 light_M2=001 light_S=100
time=15000 | clk=1 rst=1 | light_M1=001 light_MT=100 light_M2=001 light_S=100
time=20000 | clk=0 rst=0 | light_M1=001 light_MT=100 light_M2=001 light_S=100
time=25000 | clk=1 rst=0 | light_M1=001 light_MT=100 light_M2=001 light_S=100
time=30000 | clk=0 rst=0 | light_M1=001 light_MT=100 light_M2=001 light_S=100
time=35000 | clk=1 rst=0 | light_M1=001 light_MT=100 light_M2=001 light_S=100
time=40000 | clk=0 rst=0 | light_M1=001 light_MT=100 light_M2=001 light_S=100
time=45000 | clk=1 rst=0 | light_M1=001 light_MT=100 light_M2=001 light_S=100
time=50000 | clk=0 rst=0 | light_M1=001 light_MT=100 light_M2=001 light_S=100
time=55000 | clk=1 rst=0 | light_M1=001 light_MT=100 light_M2=001 light_S=100
time=60000 | clk=0 rst=0 | light_M1=001 light_MT=100 light_M2=001 light_S=100
time=65000 | clk=1 rst=0 | light_M1=001 light_MT=100 light_M2=001 light_S=100
time=70000 | clk=0 rst=0 | light_M1=001 light_MT=100 light_M2=001 light_S=100
time=75000 | clk=1 rst=0 | light_M1=001 light_MT=100 light_M2=001 light_S=100
time=80000 | clk=0 rst=0 | light_M1=001 light_MT=100 light_M2=001 light_S=100
time=85000 | clk=1 rst=0 | light_M1=001 light_MT=100 light_M2=001 light_S=100
time=90000 | clk=0 rst=0 | light_M1=001 light_MT=100 light_M2=001 light_S=100
time=95000 | clk=1 rst=0 | light_M1=001 light_MT=100 light_M2=010 light_S=100
time=100000 | clk=0 rst=0 | light_M1=001 light_MT=100 light_M2=010 light_S=100
time=105000 | clk=1 rst=0 | light_M1=001 light_MT=100 light_M2=010 light_S=100
time=110000 | clk=0 rst=0 | light_M1=001 light_MT=100 light_M2=010 light_S=100
time=115000 | clk=1 rst=0 | light_M1=001 light_MT=100 light_M2=010 light_S=100
time=120000 | clk=0 rst=0 | light_M1=001 light_MT=100 light_M2=010 light_S=100
time=125000 | clk=1 rst=0 | light_M1=001 light_MT=001 light_M2=100 light_S=100
time=130000 | clk=0 rst=0 | light_M1=001 light_MT=001 light_M2=100 light_S=100
time=135000 | clk=1 rst=0 | light_M1=001 light_MT=001 light_M2=100 light_S=100
time=140000 | clk=0 rst=0 | light_M1=001 light_MT=001 light_M2=100 light_S=100
time=145000 | clk=1 rst=0 | light_M1=001 light_MT=001 light_M2=100 light_S=100
time=150000 | clk=0 rst=0 | light_M1=001 light_MT=001 light_M2=100 light_S=100
time=155000 | clk=1 rst=0 | light_M1=001 light_MT=001 light_M2=100 light_S=100
time=160000 | clk=0 rst=0 | light_M1=001 light_MT=001 light_M2=100 light_S=100
time=165000 | clk=1 rst=0 | light_M1=001 light_MT=001 light_M2=100 light_S=100
time=170000 | clk=0 rst=0 | light_M1=001 light_MT=001 light_M2=100 light_S=100
time=175000 | clk=1 rst=0 | light_M1=001 light_MT=001 light_M2=100 light_S=100
time=180000 | clk=0 rst=0 | light_M1=001 light_MT=001 light_M2=100 light_S=100
time=185000 | clk=1 rst=0 | light_M1=010 light_MT=010 light_M2=100 light_S=100
time=190000 | clk=0 rst=0 | light_M1=010 light_MT=010 light_M2=100 light_S=100
time=195000 | clk=1 rst=0 | light_M1=010 light_MT=010 light_M2=100 light_S=100
time=200000 | clk=0 rst=0 | light_M1=010 light_MT=010 light_M2=100 light_S=100
time=205000 | clk=1 rst=0 | light_M1=010 light_MT=010 light_M2=100 light_S=100
time=210000 | clk=0 rst=0 | light_M1=010 light_MT=010 light_M2=100 light_S=100
time=215000 | clk=1 rst=0 | light_M1=100 light_MT=100 light_M2=100 light_S=001
time=220000 | clk=0 rst=0 | light_M1=100 light_MT=100 light_M2=100 light_S=001
time=225000 | clk=1 rst=0 | light_M1=100 light_MT=100 light_M2=100 light_S=001
time=230000 | clk=0 rst=0 | light_M1=100 light_MT=100 light_M2=100 light_S=001
time=235000 | clk=1 rst=0 | light_M1=100 light_MT=100 light_M2=100 light_S=001
time=240000 | clk=0 rst=0 | light_M1=100 light_MT=100 light_M2=100 light_S=001
time=245000 | clk=1 rst=0 | light_M1=100 light_MT=100 light_M2=100 light_S=001
time=250000 | clk=0 rst=0 | light_M1=100 light_MT=100 light_M2=100 light_S=001
time=255000 | clk=1 rst=0 | light_M1=100 light_MT=100 light_M2=100 light_S=010
time=260000 | clk=0 rst=0 | light_M1=100 light_MT=100 light_M2=100 light_S=010
time=265000 | clk=1 rst=0 | light_M1=100 light_MT=100 light_M2=100 light_S=010
time=270000 | clk=0 rst=0 | light_M1=100 light_MT=100 light_M2=100 light_S=010
time=275000 | clk=1 rst=0 | light_M1=100 light_MT=100 light_M2=100 light_S=010
time=280000 | clk=0 rst=0 | light_M1=100 light_MT=100 light_M2=100 light_S=010
time=285000 | clk=1 rst=0 | light_M1=100 light_MT=100 light_M2=100 light_S=010
time=290000 | clk=0 rst=0 | light_M1=100 light_MT=100 light_M2=100 light_S=010
time=295000 | clk=1 rst=0 | light_M1=001 light_MT=100 light_M2=001 light_S=100
time=300000 | clk=0 rst=0 | light_M1=001 light_MT=100 light_M2=001 light_S=100
time=305000 | clk=1 rst=0 | light_M1=001 light_MT=100 light_M2=001 light_S=100
time=310000 | clk=0 rst=0 | light_M1=001 light_MT=100 light_M2=001 light_S=100
time=315000 | clk=1 rst=0 | light_M1=001 light_MT=100 light_M2=001 light_S=100
time=320000 | clk=0 rst=0 | light_M1=001 light_MT=100 light_M2=001 light_S=100
time=325000 | clk=1 rst=0 | light_M1=001 light_MT=100 light_M2=001 light_S=100
time=330000 | clk=0 rst=0 | light_M1=001 light_MT=100 light_M2=001 light_S=100
time=335000 | clk=1 rst=0 | light_M1=001 light_MT=100 light_M2=001 light_S=100
time=340000 | clk=0 rst=0 | light_M1=001 light_MT=100 light_M2=001 light_S=100
time=345000 | clk=1 rst=0 | light_M1=001 light_MT=100 light_M2=001 light_S=100
time=350000 | clk=0 rst=0 | light_M1=001 light_MT=100 light_M2=001 light_S=100
time=355000 | clk=1 rst=0 | light_M1=001 light_MT=100 light_M2=001 light_S=100
time=360000 | clk=0 rst=0 | light_M1=001 light_MT=100 light_M2=001 light_S=100
time=365000 | clk=1 rst=0 | light_M1=001 light_MT=100 light_M2=001 light_S=100
time=370000 | clk=0 rst=0 | light_M1=001 light_MT=100 light_M2=001 light_S=100
time=375000 | clk=1 rst=0 | light_M1=001 light_MT=100 light_M2=010 light_S=100
time=380000 | clk=0 rst=0 | light_M1=001 light_MT=100 light_M2=010 light_S=100
time=385000 | clk=1 rst=0 | light_M1=001 light_MT=100 light_M2=010 light_S=100
time=390000 | clk=0 rst=0 | light_M1=001 light_MT=100 light_M2=010 light_S=100
time=395000 | clk=1 rst=0 | light_M1=001 light_MT=100 light_M2=010 light_S=100
time=400000 | clk=0 rst=0 | light_M1=001 light_MT=100 light_M2=010 light_S=100
time=405000 | clk=1 rst=0 | light_M1=001 light_MT=001 light_M2=100 light_S=100
time=410000 | clk=0 rst=0 | light_M1=001 light_MT=001 light_M2=100 light_S=100
time=415000 | clk=1 rst=0 | light_M1=001 light_MT=001 light_M2=100 light_S=100
time=420000 | clk=0 rst=0 | light_M1=001 light_MT=001 light_M2=100 light_S=100
time=425000 | clk=1 rst=0 | light_M1=001 light_MT=001 light_M2=100 light_S=100
time=430000 | clk=0 rst=0 | light_M1=001 light_MT=001 light_M2=100 light_S=100
time=435000 | clk=1 rst=0 | light_M1=001 light_MT=001 light_M2=100 light_S=100
time=440000 | clk=0 rst=0 | light_M1=001 light_MT=001 light_M2=100 light_S=100
time=445000 | clk=1 rst=0 | light_M1=001 light_MT=001 light_M2=100 light_S=100
time=450000 | clk=0 rst=0 | light_M1=001 light_MT=001 light_M2=100 light_S=100
time=455000 | clk=1 rst=0 | light_M1=001 light_MT=001 light_M2=100 light_S=100
time=460000 | clk=0 rst=0 | light_M1=001 light_MT=001 light_M2=100 light_S=100
time=465000 | clk=1 rst=0 | light_M1=010 light_MT=010 light_M2=100 light_S=100
time=470000 | clk=0 rst=0 | light_M1=010 light_MT=010 light_M2=100 light_S=100
time=475000 | clk=1 rst=0 | light_M1=010 light_MT=010 light_M2=100 light_S=100
time=480000 | clk=0 rst=0 | light_M1=010 light_MT=010 light_M2=100 light_S=100
time=485000 | clk=1 rst=0 | light_M1=010 light_MT=010 light_M2=100 light_S=100
time=490000 | clk=0 rst=0 | light_M1=010 light_MT=010 light_M2=100 light_S=100
time=495000 | clk=1 rst=0 | light_M1=100 light_MT=100 light_M2=100 light_S=001
time=500000 | clk=0 rst=0 | light_M1=100 light_MT=100 light_M2=100 light_S=001
time=505000 | clk=1 rst=0 | light_M1=100 light_MT=100 light_M2=100 light_S=001
time=510000 | clk=0 rst=0 | light_M1=100 light_MT=100 light_M2=100 light_S=001
time=515000 | clk=1 rst=0 | light_M1=100 light_MT=100 light_M2=100 light_S=001
time=520000 | clk=0 rst=0 | light_M1=100 light_MT=100 light_M2=100 light_S=001
time=525000 | clk=1 rst=0 | light_M1=100 light_MT=100 light_M2=100 light_S=001
time=530000 | clk=0 rst=0 | light_M1=100 light_MT=100 light_M2=100 light_S=001
time=535000 | clk=1 rst=0 | light_M1=100 light_MT=100 light_M2=100 light_S=010
time=540000 | clk=0 rst=0 | light_M1=100 light_MT=100 light_M2=100 light_S=010
time=545000 | clk=1 rst=0 | light_M1=100 light_MT=100 light_M2=100 light_S=010
time=550000 | clk=0 rst=0 | light_M1=100 light_MT=100 light_M2=100 light_S=010
time=555000 | clk=1 rst=0 | light_M1=100 light_MT=100 light_M2=100 light_S=010
time=560000 | clk=0 rst=0 | light_M1=100 light_MT=100 light_M2=100 light_S=010
time=565000 | clk=1 rst=0 | light_M1=100 light_MT=100 light_M2=100 light_S=010
time=570000 | clk=0 rst=0 | light_M1=100 light_MT=100 light_M2=100 light_S=010
time=575000 | clk=1 rst=0 | light_M1=001 light_MT=100 light_M2=001 light_S=100
time=580000 | clk=0 rst=0 | light_M1=001 light_MT=100 light_M2=001 light_S=100
time=585000 | clk=1 rst=0 | light_M1=001 light_MT=100 light_M2=001 light_S=100
time=590000 | clk=0 rst=0 | light_M1=001 light_MT=100 light_M2=001 light_S=100
time=595000 | clk=1 rst=0 | light_M1=001 light_MT=100 light_M2=001 light_S=100
time=600000 | clk=0 rst=0 | light_M1=001 light_MT=100 light_M2=001 light_S=100
time=605000 | clk=1 rst=0 | light_M1=001 light_MT=100 light_M2=001 light_S=100
time=610000 | clk=0 rst=0 | light_M1=001 light_MT=100 light_M2=001 light_S=100
time=615000 | clk=1 rst=0 | light_M1=001 light_MT=100 light_M2=001 light_S=100
time=620000 | clk=0 rst=0 | light_M1=001 light_MT=100 light_M2=001 light_S=100
time=625000 | clk=1 rst=0 | light_M1=001 light_MT=100 light_M2=001 light_S=100
time=630000 | clk=0 rst=0 | light_M1=001 light_MT=100 light_M2=001 light_S=100
time=635000 | clk=1 rst=0 | light_M1=001 light_MT=100 light_M2=001 light_S=100
time=640000 | clk=0 rst=0 | light_M1=001 light_MT=100 light_M2=001 light_S=100
time=645000 | clk=1 rst=0 | light_M1=001 light_MT=100 light_M2=001 light_S=100
time=650000 | clk=0 rst=0 | light_M1=001 light_MT=100 light_M2=001 light_S=100
time=655000 | clk=1 rst=0 | light_M1=001 light_MT=100 light_M2=010 light_S=100
time=660000 | clk=0 rst=0 | light_M1=001 light_MT=100 light_M2=010 light_S=100
time=665000 | clk=1 rst=0 | light_M1=001 light_MT=100 light_M2=010 light_S=100
time=670000 | clk=0 rst=0 | light_M1=001 light_MT=100 light_M2=010 light_S=100
time=675000 | clk=1 rst=0 | light_M1=001 light_MT=100 light_M2=010 light_S=100
time=680000 | clk=0 rst=0 | light_M1=001 light_MT=100 light_M2=010 light_S=100
time=685000 | clk=1 rst=0 | light_M1=001 light_MT=001 light_M2=100 light_S=100
time=690000 | clk=0 rst=0 | light_M1=001 light_MT=001 light_M2=100 light_S=100
time=695000 | clk=1 rst=0 | light_M1=001 light_MT=001 light_M2=100 light_S=100
time=700000 | clk=0 rst=0 | light_M1=001 light_MT=001 light_M2=100 light_S=100
time=705000 | clk=1 rst=0 | light_M1=001 light_MT=001 light_M2=100 light_S=100
time=710000 | clk=0 rst=0 | light_M1=001 light_MT=001 light_M2=100 light_S=100
time=715000 | clk=1 rst=0 | light_M1=001 light_MT=001 light_M2=100 light_S=100
time=720000 | clk=0 rst=0 | light_M1=001 light_MT=001 light_M2=100 light_S=100
time=725000 | clk=1 rst=0 | light_M1=001 light_MT=001 light_M2=100 light_S=100
time=730000 | clk=0 rst=0 | light_M1=001 light_MT=001 light_M2=100 light_S=100
time=735000 | clk=1 rst=0 | light_M1=001 light_MT=001 light_M2=100 light_S=100
time=740000 | clk=0 rst=0 | light_M1=001 light_MT=001 light_M2=100 light_S=100
time=745000 | clk=1 rst=0 | light_M1=010 light_MT=010 light_M2=100 light_S=100
time=750000 | clk=0 rst=0 | light_M1=010 light_MT=010 light_M2=100 light_S=100
time=755000 | clk=1 rst=0 | light_M1=010 light_MT=010 light_M2=100 light_S=100
time=760000 | clk=0 rst=0 | light_M1=010 light_MT=010 light_M2=100 light_S=100
time=765000 | clk=1 rst=0 | light_M1=010 light_MT=010 light_M2=100 light_S=100
time=770000 | clk=0 rst=0 | light_M1=010 light_MT=010 light_M2=100 light_S=100
time=775000 | clk=1 rst=0 | light_M1=100 light_MT=100 light_M2=100 light_S=001
time=780000 | clk=0 rst=0 | light_M1=100 light_MT=100 light_M2=100 light_S=001
time=785000 | clk=1 rst=0 | light_M1=100 light_MT=100 light_M2=100 light_S=001
time=790000 | clk=0 rst=0 | light_M1=100 light_MT=100 light_M2=100 light_S=001
time=795000 | clk=1 rst=0 | light_M1=100 light_MT=100 light_M2=100 light_S=001
time=800000 | clk=0 rst=0 | light_M1=100 light_MT=100 light_M2=100 light_S=001
time=805000 | clk=1 rst=0 | light_M1=100 light_MT=100 light_M2=100 light_S=001
time=810000 | clk=0 rst=0 | light_M1=100 light_MT=100 light_M2=100 light_S=001
time=815000 | clk=1 rst=0 | light_M1=100 light_MT=100 light_M2=100 light_S=010
time=820000 | clk=0 rst=0 | light_M1=100 light_MT=100 light_M2=100 light_S=010
time=825000 | clk=1 rst=0 | light_M1=100 light_MT=100 light_M2=100 light_S=010
time=830000 | clk=0 rst=0 | light_M1=100 light_MT=100 light_M2=100 light_S=010
time=835000 | clk=1 rst=0 | light_M1=100 light_MT=100 light_M2=100 light_S=010
time=840000 | clk=0 rst=0 | light_M1=100 light_MT=100 light_M2=100 light_S=010
time=845000 | clk=1 rst=0 | light_M1=100 light_MT=100 light_M2=100 light_S=010
time=850000 | clk=0 rst=0 | light_M1=100 light_MT=100 light_M2=100 light_S=010
time=855000 | clk=1 rst=0 | light_M1=001 light_MT=100 light_M2=001 light_S=100
time=860000 | clk=0 rst=0 | light_M1=001 light_MT=100 light_M2=001 light_S=100
time=865000 | clk=1 rst=0 | light_M1=001 light_MT=100 light_M2=001 light_S=100
time=870000 | clk=0 rst=0 | light_M1=001 light_MT=100 light_M2=001 light_S=100
time=875000 | clk=1 rst=0 | light_M1=001 light_MT=100 light_M2=001 light_S=100
time=880000 | clk=0 rst=0 | light_M1=001 light_MT=100 light_M2=001 light_S=100
time=885000 | clk=1 rst=0 | light_M1=001 light_MT=100 light_M2=001 light_S=100
time=890000 | clk=0 rst=0 | light_M1=001 light_MT=100 light_M2=001 light_S=100
time=895000 | clk=1 rst=0 | light_M1=001 light_MT=100 light_M2=001 light_S=100
time=900000 | clk=0 rst=0 | light_M1=001 light_MT=100 light_M2=001 light_S=100
time=905000 | clk=1 rst=0 | light_M1=001 light_MT=100 light_M2=001 light_S=100
time=910000 | clk=0 rst=0 | light_M1=001 light_MT=100 light_M2=001 light_S=100
time=915000 | clk=1 rst=0 | light_M1=001 light_MT=100 light_M2=001 light_S=100
time=920000 | clk=0 rst=0 | light_M1=001 light_MT=100 light_M2=001 light_S=100
time=925000 | clk=1 rst=0 | light_M1=001 light_MT=100 light_M2=001 light_S=100
time=930000 | clk=0 rst=0 | light_M1=001 light_MT=100 light_M2=001 light_S=100
time=935000 | clk=1 rst=0 | light_M1=001 light_MT=100 light_M2=010 light_S=100
time=940000 | clk=0 rst=0 | light_M1=001 light_MT=100 light_M2=010 light_S=100
time=945000 | clk=1 rst=0 | light_M1=001 light_MT=100 light_M2=010 light_S=100
time=950000 | clk=0 rst=0 | light_M1=001 light_MT=100 light_M2=010 light_S=100
time=955000 | clk=1 rst=0 | light_M1=001 light_MT=100 light_M2=010 light_S=100
time=960000 | clk=0 rst=0 | light_M1=001 light_MT=100 light_M2=010 light_S=100
time=965000 | clk=1 rst=0 | light_M1=001 light_MT=001 light_M2=100 light_S=100
time=970000 | clk=0 rst=0 | light_M1=001 light_MT=001 light_M2=100 light_S=100
time=975000 | clk=1 rst=0 | light_M1=001 light_MT=001 light_M2=100 light_S=100
time=980000 | clk=0 rst=0 | light_M1=001 light_MT=001 light_M2=100 light_S=100
time=985000 | clk=1 rst=0 | light_M1=001 light_MT=001 light_M2=100 light_S=100
time=990000 | clk=0 rst=0 | light_M1=001 light_MT=001 light_M2=100 light_S=100
time=995000 | clk=1 rst=0 | light_M1=001 light_MT=001 light_M2=100 light_S=100
time=1000000 | clk=0 rst=0 | light_M1=001 light_MT=001 light_M2=100 light_S=100
